/* XPM */
static char *memory[] = {
/* columns rows colors chars-per-pixel */
"48 48 7 1 ",
"  c None",
". c #2195F2",
"X c #2195F3",
"o c #2196F2",
"O c #2196F3",
"+ c #2197F3",
"@ c #2195F4",
/* pixels */
"                                                ",
"                                                ",
"                                                ",
"                                                ",
"                                                ",
"                                                ",
"                  OOOO    OOOO                  ",
"                  OOOO    OOOO                  ",
"                  OOOO    OOOO                  ",
"                  OOOO    OOOO                  ",
"             oOOOOOOOOOOOOOOOOOOOOo+            ",
"           oOOOOOOOOOOOOOOOOOOOOOOOOo           ",
"          @OOOOOOOOOOOOOOOOOOOOOOOOOO.          ",
"          oOOOOOOOOOOOOOOOOOOOOOOOOOOO          ",
"          OOOO                    OOOO          ",
"          OOOO                    OOOO          ",
"          OOOO                    OOOO          ",
"          OOOO                    OOOO          ",
"      OOOOOOOO    OOOOOOOOOOOO    OOOOOOOO      ",
"      OOOOOOOO    OOOOOOOOOOOO    OOOOOOOO      ",
"      OOOOOOOO    OOOOOOOOOOOO    OOOOOOOO      ",
"      OOOOOOOO    OOOOOOOOOOOO    OOOOOOOO      ",
"          OOOO    OOOO    OOOO    OOOO          ",
"          OOOO    OOOO    OOOO    OOOO          ",
"          OOOO    OOOO    OOOO    OOOO          ",
"          OOOO    OOOO    OOOO    OOOO          ",
"      OOOOOOOO    OOOOOOOOOOOO    OOOOOOOO      ",
"      OOOOOOOO    OOOOOOOOOOOO    OOOOOOOO      ",
"      OOOOOOOO    OOOOOOOOOOOO    OOOOOOOO      ",
"      OOOOOOOO    OOOOOOOOOOOO    OOOOOOOO      ",
"          OOOO                    OOOO          ",
"          OOOO                    OOOO          ",
"          OOOO                    OOOO          ",
"          OOOO                    OOOO          ",
"          XOOOOOOOOOOOOOOOOOOOOOOOOOO.          ",
"          .OOOOOOOOOOOOOOOOOOOOOOOOOOo          ",
"           .OOOOOOOOOOOOOOOOOOOOOOOOO           ",
"            oOOOOOOOOOOOOOOOOOOOOOOX            ",
"                  OOOO    OOOO                  ",
"                  OOOO    OOOO                  ",
"                  OOOO    OOOO                  ",
"                  OOOO    OOOO                  ",
"                                                ",
"                                                ",
"                                                ",
"                                                ",
"                                                ",
"                                                "
};
