/* XPM */
static char * play_xpm[] = {
"20 20 37 1",
" 	c None",
".	c #000000",
"+	c #010101",
"@	c #6B6B6B",
"#	c #676767",
"$	c #020202",
"%	c #6C6C6C",
"&	c #FFFFFF",
"*	c #E8E8E8",
"=	c #404040",
"-	c #BABABA",
";	c #1C1C1C",
">	c #898989",
",	c #080808",
"'	c #696969",
")	c #F5F5F5",
"!	c #5C5C5C",
"~	c #DCDCDC",
"{	c #303030",
"]	c #B4B4B4",
"^	c #141414",
"/	c #686868",
"(	c #DADADA",
"_	c #2B2B2B",
":	c #EFEFEF",
"<	c #717171",
"[	c #050505",
"}	c #ADADAD",
"|	c #111111",
"1	c #666666",
"2	c #D9D9D9",
"3	c #292929",
"4	c #F7F7F7",
"5	c #525252",
"6	c #646464",
"7	c #838383",
"8	c #060606",
"....................",
"....................",
"...+................",
"...@#$..............",
"...%&*=.............",
"...@&&&-;...........",
"...@&&&&&>,.........",
"...'&&&&&&)!$.......",
"...'&&&&&&&&~{......",
"...'&&&&&&&&&&]^....",
".../&&&&&&&&&&(_....",
".../&&&&&&&&:=......",
"...#&&&&&&&<[.......",
"...#&&&&&}|.........",
"...1&&&23...........",
"...1&45+............",
"...678..............",
"...8................",
"....................",
"...................."};
