/* XPM */
static char *volume[] = {
/* columns rows colors chars-per-pixel */
"48 48 5 1 ",
"  c None",
". c #5AC0DD",
"X c #5BC0DD",
"o c #5AC0DE",
"O c #5BC0DE",
/* pixels */
"                                                ",
"                                                ",
"                                                ",
"                                                ",
"                                                ",
"                      oO                        ",
"                     OOOO.                      ",
"                    .OOOOO                      ",
"                   XOOOOOOO                     ",
"                  XOOOOOOOO          O          ",
"                 XOOOOOOOOO         .OO         ",
"                .OOOOOOOOOO         OOOO        ",
"               .OOOOOOOOOOO          OOO.       ",
"              OOOOOOOOOOOOO           OOO.      ",
"            XOOOOOOOOOOOOOO           OOOO      ",
"     OXOOOOOOOOOOOOOOOOOOOO      OX    .OO.     ",
"    .OOOOOOOOOOOOOOOOOOOOOO     XOOO    OOO     ",
"    OOOOOOOOOOOOOOOOOOOOOOO     .OOO    .OOO    ",
"    OOOOOOOOOOOOOOOOOOOOOOO      OOO.   OOO.    ",
"    OOOOOOOOOOOOOOOOOOOOOOO      OOOO    OOO    ",
"    OOOOOOOOOOOOOOOOOOOOOOO       OOO    OOO    ",
"    OOOOOOOOOOOOOOOOOOOOOOO       XOOO   .OO    ",
"    OOOOOOOOOOOOOOOOOOOOOOO       oOOo   XOOo   ",
"    OOOOOOOOOOOOOOOOOOOOOOO       OOOo   .OOO   ",
"    OOOOOOOOOOOOOOOOOOOOOOO       oOOO   XOO    ",
"    OOOOOOOOOOOOOOOOOOOOOOO       .OOo   OOO    ",
"    OOOOOOOOOOOOOOOOOOOOOOO       OOO    OOO    ",
"    OOOOOOOOOOOOOOOOOOOOOOO      XOO.    OOO    ",
"    OOOOOOOOOOOOOOOOOOOOOOO     OOOOo   oOOX    ",
"    OOOOOOOOOOOOOOOOOOOOOOO     OOO.    OOO     ",
"     OOOOOOOOOOOOOOOOOOOOOO     OOO    OOOO     ",
"          oXOOOOOOOOOOOOOOO      .     OOOO     ",
"             .OOOOOOOOOOOOO           XOO.      ",
"              XOOOOOOOOOOOO          oOOO       ",
"               oOOOOOOOOOOO         oOOOX       ",
"                OOOOOOOOOOO         OOOX        ",
"                 OOOOOOOOOO         OOX         ",
"                  OOOOOOOOO          .          ",
"                   OOOOOOOo                     ",
"                    oOOOO.                      ",
"                     OOO.                       ",
"                                                ",
"                                                ",
"                                                ",
"                                                ",
"                                                ",
"                                                ",
"                                                "
};
