/* XPM */
static char *play[] = {
/* columns rows colors chars-per-pixel */
"32 32 45 1 ",
"  c None",
". c #32BEA5",
"X c #33BFA5",
"o c #32BDA6",
"O c #32BEA6",
"+ c #33BEA6",
"@ c #34BFA7",
"# c #39C0A9",
"$ c #40C2AC",
"% c #44C4AE",
"& c #49C5B0",
"* c #4CC6B1",
"= c #52C8B4",
"- c #53C8B4",
"; c #55C9B5",
": c #5DCCB8",
"> c #5FCCBA",
", c #65CEBC",
"< c #6DD1C0",
"1 c #7DD6C6",
"2 c #7ED6C7",
"3 c #88D9CB",
"4 c #95DDD1",
"5 c #9DE0D4",
"6 c #9FE1D5",
"7 c #ABE4DB",
"8 c #ACE5DB",
"9 c #B5E8DF",
"0 c #BDEAE2",
"q c #C4ECE6",
"w c #CCEFE9",
"e c #CEEFEA",
"r c #D5F2ED",
"t c #D6F2ED",
"y c #E4F7F3",
"u c #EBF9F6",
"i c #ECF9F7",
"p c #EDF9F7",
"a c #EEFAF8",
"s c #F3FBFA",
"d c #F5FCFA",
"f c #FAFDFD",
"g c #FDFEFE",
"h c #FEFFFF",
"j c white",
/* pixels */
"            OOOOOOOO            ",
"         .OOOOOOOOOOO.o         ",
"       o.OOOOOOOOOOO..ooo       ",
"      ooOOOOOOOOOOOO.#oO#.      ",
"     o..OOOOOO..OOOOOOOO..o     ",
"    o#..OOOOOO..OOOOOOOO.#o.    ",
"   OOO..OOOOOO..OOOOOOOO....o   ",
"  OOOOOOOOOOOO#oOOOOOOOOOO.#oo  ",
"  ooOOOOOOO4q,o#OOOOOOOOOOOOO.  ",
" ##oOOOOOOOugg7#OOOOOOOOOOOOOOo ",
" ...OOOOOOOuggga1OOOOO..OOOO.## ",
" ...OOOOOOOugggggw=OOO..OOOO.oo ",
"ooOOOOOOOOOaggggggg5#@o.OOOO...O",
".#OOOOOOOOOaggggggggy<o#OOOO..OO",
"..OOOOOOOOOugggggggggg0&OOOOOOOO",
"..OOOOOOOOOugggggggggggs&OOOOOOO",
"OOOOOOOO.##pgggggggggggf=oOOOOOO",
"OOOOOOOO.oopggggggggggr=ooOOOOOO",
"OOOOOOOO..opgggggggga2OO#..OOOOO",
"OOOOOOOO..oaggggggg8#OOO....OOOO",
" OOOOOOO.OOugggggt:OOOOOOOOOOOO ",
" OOOOOOO.OOugggd3#O.OOOOOOOOOOO ",
" OOOOOOOOOOufg0%o...OOOOOO.O.#o ",
"  OOOOOOOOO6r>oOo#..OOOOOO...o  ",
"  OOOOOOOOOOOOOOOOOOOOOOOOOOOO  ",
"   OOOOOOOOOOOOOOOOOOOOOOOOOO   ",
"    @OOOOOOOOOOOOOOOOOOOOOOO    ",
"     OOOOOOOOOOOOOOOOOOOOOO     ",
"      OO...OOOOOOOOO..OOOO      ",
"       O#o..OOOOOOOO..O.O       ",
"         oOOOOOOOOOOo#o         ",
"            OOOOOOOO            "
};
